{
    "Category": [
        {
            "typeId": 0,
            "index": 0,
            "name": "Hoạt hình",
            "category": "Anime"
        },
        {
            "typeId": 1,
            "index": 1,
            "name": "Âm nhạc",
            "category": "Music"
        },
        {
            "typeId": 2,
            "index": 7,
            "name": "Giải trí",
            "category": "Relax"
        },
        {
            "typeId": 3,
            "index": 6,
            "name": "DIY",
            "category": "DIY"
        },
        {
            "typeId": 4,
            "index": 4,
            "name": "Giáo dục",
            "category": "Education"
        },
        {
            "typeId": 5,
            "index": 5,
            "name": "Khoa học",
            "category": "Science"
        },
        {
           "typeId": 6,
           "index": 3,
           "name": "Động vật",
           "category": "Animals & Wildlife"
        },
        {
            "typeId": 7,
            "index": 2,
            "name": "Đồ chơi",
            "category": "Toys"
        }
    ],
    "Channel": [
        {
            "channelId": "UC5ezaYrzZpyItPSRG27MLpg",
            "username": "popskids",
            "title": "POPS Kids",
            "summary": "POPS Kids - Ngôi Nhà Giáo Dục Và Giải Trí Hàng Đầu Cho Trẻ\nPOPS Kids là kênh giải trí, giáo dục hàng đầu cho thiếu nhi với nội dung an toàn và đa dạng. POPS Kids cung cấp các video ca nhạc thiếu nhi như Mầm Chồi Lá, các clip hướng dẫn vẽ tranh trong series Siêu Nhân Bút Chì và nhiều chuyên mục hấp dẫn khác.",
            "publishedAt": "2014-01-14T10:34:15.000Z",
            "countryCode": "vn",
            "languageId": 0,
            "typeId": 0,
            "thumbnail": {
                "url": "https://yt3.ggpht.com/a/AGF-l7-3fBeacUrCLKhWiZNN9Z1KPxo_sdWqMyT6VQ=s800-c-k-c0xffffffff-no-rj-mo",
                "width": 800,
                "height": 800
            },
            "uploadsPlaylistsId": "UU5ezaYrzZpyItPSRG27MLpg"
        },
        {
            "channelId": "UCkgdDBHO7zl3tWIjldQeK7g",
            "username": "popsanime",
            "title": "POPS Anime",
            "summary": "Kênh POPS Anime\nKênh hoạt hình trực tuyến phát sóng các bộ phim hoạt hình có bản quyền dành cho thiếu nhi. Kho phim gồm rất nhiều bộ Anime bom tấn với đủ các thể loại và liên tục cập nhật các bộ phim mới nhất mùa: One Piece, Superkar, Pokémon, GGO, Dragon Ball, ...",
            "publishedAt": "2017-08-24T06:55:09.000Z",
            "countryCode": "vn",
            "languageId": 0,
            "typeId": 0,
            "thumbnail": {
                "url": "https://yt3.ggpht.com/a/AGF-l7_WzUP3gDluYuhvu_tAGdeDoSgWsBz-Y9yRaw=s800-c-k-c0xffffffff-no-rj-mo",
                "width": 800,
                "height": 800
            },
            "uploadsPlaylistsId": "UUkgdDBHO7zl3tWIjldQeK7g"
        },
        {
            "channelId": "UCI1MEY35cpjdRMnxSc3dp2w",
            "username": "zitu",
            "title": "Yeah1 Kids",
            "summary": "Yeah1 Kids là kênh giải trí và học tập dành cho thiếu nhi với nội dung an toàn và phù hợp với trẻ em. Các hoạt hình nước ngoài được lồng Tiếng Việt như Những chú chó cứu hộ, Ninja Rùa, Siêu Nhân Robot, Cảnh Sát Liên Hành Tinh Bối Bối và đặc biệt serise phim siêu nhân Nhật Bản nổi tiếng \"Siêu Nhân Điện Quang (Ultraman)\",.....",
            "publishedAt": "2015-11-07T09:11:33.000Z",
            "countryCode": "vn",
            "languageId": 0,
            "typeId": 0,
            "thumbnail": {
                "url": "https://yt3.ggpht.com/a/AGF-l79QivindCPaKzNEUnbSDWos4kl2C-3Dibc7ww=s800-c-k-c0xffffffff-no-rj-mo",
                "width": 800,
                "height": 800
            },
            "uploadsPlaylistsId": "UUI1MEY35cpjdRMnxSc3dp2w"
        },
        {
            "channelId": "UCKS1HX4moHCcDBZnM9k4giw",
            "username": "kedootv",
            "title": "Booba",
            "summary": "Booba is cute and inquisitive, like a five-year-old kid. He explores the world without anger or resentment, only joy and wonder. He doesn't talk, although he does make sounds to express his emotions.\n \nNobody knows where he came from, but he has obviously missed the last 100 years of human progress and explores modern locations with boundless energy and enthusiasm. His awkward movements, combined with a strong desire to learn more about the world around him, often have hilarious results! However, this doesn’t satisfy Booba’s curiosity, so his adventures will continue in the upcoming series. \n \nThis series about Booba is the main project of the 3D Sparrow animation studio. For any business inquiries, please feel free to contact us at contact@3dsparrow.com\n\nBooba official merchandise is now available worldwide! Check the below link.\nhttp://boobatv.com/store",
            "publishedAt": "2014-08-08T12:11:44.000Z",
            "countryCode": "us",
            "languageId": 1,
            "typeId": 0,
            "thumbnail": {
                "url": "https://yt3.ggpht.com/a/AGF-l7-iItZoGe0QTRAFueuJpkhsAMBv6EZ3nB8xJA=s800-c-k-c0xffffffff-no-rj-mo",
                "width": 800,
                "height": 800
            },
            "uploadsPlaylistsId": "UUKS1HX4moHCcDBZnM9k4giw"
        },
        {
            "channelId": "UCph-WGR0oCbJDpaWmNHb5zg",
            "username": "larva2011ani",
            "title": "Larva TUBA",
            "summary": "Welcome to the official LARVA channel by TUBA n.\n\nTUBA n is an animation studio well known for its skillful techniques on 3D CGI production.  \nThe company has more than 12 years of experience of creating various portfolios.\nOver the years, ‘TUBA n’ has been exploring new paths to deliver happiness to more people. \n\nOur priority is to deliver a \"Big Smile For Everyone\".",
            "publishedAt": "2011-09-23T09:04:57.000Z",
            "countryCode": "kr",
            "languageId": 1,
            "typeId": 0,
            "thumbnail": {
                "url": "https://yt3.ggpht.com/a/AGF-l7_VxgO0DEJne2Z3j9WvRse-sutHJ8Dvhdc7UQ=s800-c-k-c0xffffffff-no-rj-mo",
                "width": 800,
                "height": 800
            },
            "uploadsPlaylistsId": "UUph-WGR0oCbJDpaWmNHb5zg"
        },
        {
            "channelId": "UCAOtE1V7Ots4DjM8JLlrYgg",
            "username": "peppapig",
            "title": "Peppa Pig",
            "summary": "Peppa lives with her mummy and daddy and her little brother, George. Her adventures are fun, sometimes involve a few tears, but always end happily.\n\n\nWelcome to the Official Peppa Pig channel and the home of Peppa on YouTube! We have created a world of Peppa with episodes and compilations to keep even the most dedicated Peppa fans happy. Enjoy and don't forget to subscribe!",
            "publishedAt": "2013-10-09T13:07:35.000Z",
            "countryCode": "us",
            "languageId": 1,
            "typeId": 0,
            "thumbnail": {
                "url": "https://yt3.ggpht.com/a/AGF-l7-UmtqMbAqf7gkjyV7tTuM1Iafj-GB-b4Qmuw=s800-c-k-c0xffffffff-no-rj-mo",
                "width": 800,
                "height": 800
            },
            "uploadsPlaylistsId": "UUAOtE1V7Ots4DjM8JLlrYgg"
        },
        {
               "channelId": "UC3KknIJZXRygH2pZ6MDtGbg",
               "username": "kidschannel",
               "title": "Kids Channel",
               "summary": "Kids Channel is an online educational platform, specializing in graphic videos, nursery rhymes and songs for children. With the help of colors and graceful movement children develop their cognitive capacities, imagination, creativity and logical reasoning. Taking preschool education to the next level our videos go beyond ABC, 123, shapes and colors we teach your preschooler moral values such as friendship, love, caring , sharing and more. Our videos bring to life the toys that your baby plays with such as cars, trucks, monster trucks and many more vehicles that bring kindergarten education to your door step, interactively teaching your toddler the alphabets, numbers and more. A land of car cartoons we have many special friends such as Little Red Car, the Haunted House Monster Truck, Monster Truck Dan and the Road Rangers take you to a special journey in each new episode. We are dedicated in nurturing young minds into young intellectuals. Let you children join the movement!",
               "publishedAt": "2013-07-13T03:50:25.000Z",
               "countryCode": "us",
               "languageId": 1,
               "typeId": 0,
               "thumbnail": {
                   "url": "https://yt3.ggpht.com/a/AGF-l7-BSUZSs6S-hOHTPzaSS7YuyUWjYkKPo3nHzA=s800-c-k-c0xffffffff-no-rj-mo",
                   "width": 800,
                   "height": 800
               },
               "uploadsPlaylistsId": "UU3KknIJZXRygH2pZ6MDtGbg"
        },
        {
            "channelId": "UCRv76wLBC73jiP7LX4C3l8Q",
            "username": "mashamedvedtv",
            "title": "Маша и Медведь",
            "summary": "«Маша и Медведь» - это самый популярный российский мультсериал для всей семьи, рассказывающий о дружбе бывшего циркового артиста Медведя и маленькой веселой хулиганки Маши, которая не дает скучать не только ему, но и всем лесным жителям.\n\nСмотрите все серии Маша и Медведь, Машины Сказки, Машкины Страшилки онлайн на нашем канале YouTube!",
            "publishedAt": "2011-05-31T09:32:03.000Z",
            "countryCode": "ru",
            "languageId": 2,
            "typeId": 0,
            "thumbnail": {
                "url": "https://yt3.ggpht.com/a/AGF-l78kf4dz0_5f84x2Wjmle_4oQ8gz7dRApCZeRw=s800-c-k-c0xffffffff-no-rj-mo",
                "width": 800,
                "height": 800
            },
            "uploadsPlaylistsId": "UURv76wLBC73jiP7LX4C3l8Q"
        },
        
        
        
        
        
        
        
        
        
        
        {
            "channelId": "UCLsooMJoIpl_7ux2jvdPB-Q",
            "title": "Super Simple Songs",
            "username": "supersimplesongs",
            "summary": "Kids songs, nursery rhymes, and more! Learn and explore through song and movement with Super Simple Songs! Our team of educators has created some of the most popular children's songs on YouTube to get up, move, and sing along with! Get ready for a musical adventure in rhyme!",
            "publishedAt": "2006-09-08T08:50:54.000Z",
            "countryCode": "us",
            "languageId": 0,
            "typeId": 1,
            "thumbnail": {
                "url": "https://yt3.ggpht.com/a/AGF-l7-GxGBclr37KtPwF0nDVovSYgW751mVqJ62rQ=s800-c-k-c0xffffffff-no-rj-mo",
                "width": 800,
                "height": 800
            },
            "uploadsPlaylistsId": "UULsooMJoIpl_7ux2jvdPB-Q"
        },
        {
            "channelId": "UC7Pq3Ko42YpkCB_Q4E981jw",
            "title": "Kids TV",
            "username": "kidstv",
            "summary": "We welcome you to the land of Kids TV where you will find lots of nursery rhymes and kids songs with lyrics. \nWe aim to make children’s learning a fun & educational experience with alphabets, number, colours, shapes, animals and more. \nKids TV is also a home to Popular Kids Shows like Bob the Train, Junior Squad, Little Eddie, Baby Bao Panda, Bottle Squad, Om Nom.\nAll you need to do is subscribe to Kids TV for your toddlers and let them enjoy hundreds of kid’s favourite songs, stories, phonics song and classic nursery rhymes like Johny Johny Yes Papa, Wheels on the Bus, Finger Family, Baa Baa Black Sheep and many more.\n\nEnglish Nursery Rhymes, Comptines en anglais,  Músicas em inglês para crianças, Písničky v angličtině, أناشيد أطفال باللغة الإنجليزية, Barnerim på engelsk, canciones en inglés para niños, Lagu-lagu anak berbahasa Inggeris, Canzoni per bambini in inglese, Hindi Rhymes, Engelse kinderliedjes, Piosenki dla dzieci po angielsku, Kinderlieder, , เพลงภาษาอังกฤษสำหรับเด็ก.",
            "publishedAt": "2013-08-30T11:56:31.000Z",
            "countryCode": "us",
            "languageId": 1,
            "typeId": 1,
            "thumbnail": {
                "url": "https://yt3.ggpht.com/a/AGF-l7-eRsuCOQ43Hj9WVVU1xGY2L6sgA8S1DZLM2w=s800-c-k-c0xffffffff-no-rj-mo",
                "width": 800,
                "height": 800
            },
            "uploadsPlaylistsId": "UU7Pq3Ko42YpkCB_Q4E981jw"
        },
        {
            "channelId": "UCbCmjCuTUZos6Inko4u57UQ",
            "title": "Cocomelon",
            "username": "cocomelon",
            "summary": "Treasure Studio, Inc. was founded in 2005 to make quality children’s content. We joined YouTube in 2006 with the intent of making our videos free to our viewers. We are one of the oldest children’s channels on YouTube, and we have consistently made videos and songs for 13 years.\n\nAt Cocomelon, our goal is to help make learning a fun and enjoyable experience for kids with our beautiful 3D animation, educational lyrics, and toe-tapping music. \n\nKids will laugh, dance, sing, and play along with our videos, learning letters, numbers, animal sounds, colors, and much, much more while enjoying our friendly characters and fun stories. Our videos also give you an opportunity to teach and play with your children as you both watch!\n\nCocomelon. Where kids can be happy and smart!",
            "publishedAt": "2006-09-01T22:18:49.000Z",
            "countryCode": "us",
            "languageId": 1,
            "typeId": 1,
            "thumbnail": {
                "url": "https://yt3.ggpht.com/a/AGF-l79wZ6qBUvS5bcIe_XVWu7cUdHEEZRUnK18Pcg=s800-c-k-c0xffffffff-no-rj-mo",
                "width": 800,
                "height": 800
            },
            "uploadsPlaylistsId": "UUbCmjCuTUZos6Inko4u57UQ"
        },
        {
            "channelId": "UCKAqou7V9FAWXpZd9xtOg3Q",
            "title": "Little Baby Bum",
            "username": "littlebabybum",
            "summary": "The best nursery rhyme videos for children on YouTube - stunning and colourful 3D animations in beautiful HD! \n\nNew videos every Wednesday, plus new weekly compilations every Friday so make sure you subscribe so you don't miss out! (and press the \"Bell\" button to get notified!)\n\nBe sure to check out our other channels: \nLBB Junior! https://www.youtube.com/c/LBBJunior  - like LBB but for older children! \nKiiYii https://www.youtube.com/c/KiiYiiEnglish - follow Kii and Yii in their space adventures whilst singing nursery rhymes!\n\nas well as our other language channels:\n\nEspañol:      https://www.youtube.com/user/LittleBabyBumEspanol\nDeutsch:     https://www.youtube.com/user/LittleBabyBumDeutsch\nPortuguês:  https://www.youtube.com/user/LittleBabyBumBrazil\nру́сский:     https://www.youtube.com/user/LittleBabyBumRussian\nFrançais:      https://www.youtube.com/user/LittleBabyBumFrance\n日本語:        https://www.youtube.com/channel/UCHvkzO3I9Zk36L9zNFRosxg\n\nwith more to come soon!",
            "publishedAt": "2011-06-22T13:34:20.000Z",
            "countryCode": "us",
            "languageId": 1,
            "typeId": 1,
            "thumbnail": {
                "url": "https://yt3.ggpht.com/a/AGF-l7_8t8wY2pMh6Va3Guv5Qj7EIqVHPU7I9bOT9g=s800-c-k-c0xffffffff-no-rj-mo",
                "width": 800,
                "height": 800
            },
            "uploadsPlaylistsId": "UUKAqou7V9FAWXpZd9xtOg3Q"
        },
        {
            "channelId": "UCtgpDqkeOToveUgh8igrvXQ",
            "title": "KidsTV123",
            "username": "kidstv123page",
            "summary": "Songs for children. Kids songs. Educational songs and videos for children, toddlers and babies.",
            "publishedAt": "2009-02-28T13:22:10.000Z",
            "countryCode": "us",
            "languageId": 1,
            "typeId": 1,
            "thumbnail": {
                "url": "https://yt3.ggpht.com/a/AGF-l79ixurarRQnecaB5S32671U_cRYGLUFq1auEQ=s800-c-k-c0xffffffff-no-rj-mo",
                "width": 800,
                "height": 800
            },
            "uploadsPlaylistsId": "UUtgpDqkeOToveUgh8igrvXQ"
        },
        {
            "channelId": "UCLy6-72NzYpFztbJ7jNEMkg",
            "title": "The Kiboomers",
            "username": "kiboomu",
            "summary": "Welcome to The Kiboomers MUSIC on YouTube!\nKids Songs for the PreK classroom.\n\nThis is THE place to listen to all our songs for kids. Our songs will help your children learn colors, shapes, counting, numbers, reading and language skills, nursery rhymes, dance and movement. \n\nThe Kiboomers award-winning music consists of more than 500 songs to date.  On this channel, you will find a selection of kids videos that showcase our music.\n\nWith millions sold, The Kiboomers continue to be the brand of choice for parents and teachers.  \n\nOn iTunes\nhttps://itunes.apple.com/us/artist/the-kiboomers/id395585033\n\nOn Spotify\nhttps://open.spotify.com/artist/1qKLikeNYpQFSsDAjg7HpI\n\nOn Teachers Pay Teachers:\nhttps://www.teacherspayteachers.com/Store/The-Kiboomers\n\nSign-up for our Newsletter to receive exclusive offers. Click here! http://thekiboomers.com/\nInnovative and fun learning songs for ages 2 and up.  Make sure you subscribe!\nFor licensing inquirers: sherry@kiboomu.com",
            "publishedAt": "2010-01-24T10:02:36.000Z",
            "countryCode": "ca",
            "languageId": 0,
            "typeId": 1,
            "thumbnail": {
                "url": "https://yt3.ggpht.com/a/AGF-l7-tzXhgJp6ez_Ey3JBW0Cq6tVtIOsDAorfcrg=s800-c-k-c0xffffffff-no-rj-mo",
                "width": 800,
                "height": 800
            },
            "uploadsPlaylistsId": "UULy6-72NzYpFztbJ7jNEMkg"
        },
        {
            "channelId": "UCkIz27-hS4O-mCiChXZgNKw",
            "title": "Baby Joy Joy",
            "username": "babyjoyjoy",
            "summary": "Baby Joy Joy contains education videos for toddlers to watch.\nJoin \"Baby Joy Joy\" and her imagination! Featuring your favorite Nursery Rhymes, Kids Songs, Stories, and more!\nPlease subscribe to Baby Joy Joy's channel! Songs will include: ABC Song, Baa Baa Blacksheep, Crazy Food, 10 in the Bed, Old MacDonald, Twinkle Twinkle Little Star, Mary Had a Little Lamb, 5 Little Monkeys, and more!\n\nSubscribe to our channel for lots of fun preschool learning! If you love Little Baby Bum, Masha and the Bear, or Super Simple Songs, you'll love Baby Joy Joy",
            "publishedAt": "2016-01-27T04:59:03.000Z",
            "countryCode": "us",
            "languageId": 0,
            "typeId": 1,
            "thumbnail": {
                "url": "https://yt3.ggpht.com/a/AGF-l79ng3Ot-pWdaD1LJiuKg7Lvm1nJpgwRzDpqGg=s800-c-k-c0xffffffff-no-rj-mo",
                "width": 800,
                "height": 800
            },
            "uploadsPlaylistsId": "UUkIz27-hS4O-mCiChXZgNKw"
        },
        {
            "channelId": "UCzH1ebQRhLJe0Yx4xayGUlA",
            "title": "Best Baby Lullabies",
            "username": "bestbabylullabies",
            "summary": "Best music for babies to sleep to. Help baby sleep with Best Baby Lullabies  gentle lullabies for babies to give your baby sleep help and show you how to put a baby to sleep. Putting a baby to sleep with a   lullaby music is easy. We have music for toddlers and children; nursery rhymes, songs and classical music for babies; relaxing, calming music for babies and parents too ; white noise and womb heart beat sounds to soothe newborns which Babies are calmed and soothed by lullabies and love the sound of your voice. Singing a lullaby to your baby is a great way to bond and have fun with baby too. Lullaby music can be used to relax baby and relaxed parents at the same time to put a baby to sleep\n\nWhy not take time for relaxation with baby and share a meditation lullaby which will leave you and baby calm and relaxed and even send you both to sleep?\n\nFREE download  from http://bestbabylullabies.com \nPlease subscribe for news and the latest uploads.on youtube.\n#babylullaby\n#bestbabylullabies",
            "publishedAt": "2014-03-19T10:03:46.000Z",
            "countryCode": "us",
            "languageId": 0,
            "typeId": 1,
            "thumbnail": {
                "url": "https://yt3.ggpht.com/a/AGF-l790MuJ4pPIk4m1AmeVhdEP7SiUQh4pyG3fpvA=s800-c-k-c0xffffffff-no-rj-mo",
                "width": 800,
                "height": 800
            },
            "uploadsPlaylistsId": "UUzH1ebQRhLJe0Yx4xayGUlA"
        },
        {
            "channelId": "UCNzsYU0aWwjERj-9Y9HUEng",
            "title": "Little Angel",
            "username": "littleangelvideo",
            "summary": "Focusing on fun, Little Angel burst onto the online scene as a YouTube channel in 2015. With a fresh and fun approach to children’s entertainment, Little Angel guarantees hours of high-quality fun for children and toddlers. Reimagined nursery rhymes and stories set to original music and cartoons are sure to become new favourites for kids of all ages as they sing and dance along with their favourite Little Angel characters and stories. \n\nWhether it's time to learn, time to play, time for bed, or just a moment for some quality time with Mom or Dad, Little Angel is the home for nursery rhymes and kids songs!\n\nSubscribe to Little Angel: http://bit.ly/Subscribe_to_LittleAngel \n\nFor business related matters relating to our channel (including media & advertising) please contact business.yt@valnetinc.com\n\nFor copyright matters relating to our channel please contact us directly at : david.f@valnetinc.com",
            "publishedAt": "2015-12-14T01:46:17.000Z",
            "countryCode": "us",
            "languageId": 0,
            "typeId": 1,
            "thumbnail": {
                "url": "https://yt3.ggpht.com/a/AGF-l7-OnBDc2dunwEf3YxzsSWlAAGLJ6UZ59HeKSg=s800-c-k-c0xffffffff-no-rj-mo",
                "width": 800,
                "height": 800
            },
            "uploadsPlaylistsId": "UUNzsYU0aWwjERj-9Y9HUEng"
        },
        {
            "channelId": "UCcdwLMPsaU2ezNSJU1nFoBQ",
            "title": "Pinkfong!",
            "username": "pinkfong",
            "summary": "Welcome to Pinkfong's official YouTube channel. Meet Pinkfong’s fun, educational videos that captured the hearts of millions of children around the world.\n\nSubscribe to our channel for hundreds of kids' favorite songs and stories, including nursery rhymes, phonics songs, number songs, bedtime lullabies, children's classics, fairy tales and more! Enjoy educational songs and stories for preschool kids created by experts in children's education.\n\nFollow us on Facebook for new updates and free promotions.\n★ Facebook: https://www.facebook.com/pinkfong.official\n★ Website:  https://www.smartstudy.co.kr\n\n[IMPORTANT]\nKindly be noted using of Pinkfong's all creative contents such as music or animation(collectively as \"Contents\") with no prior permission from Pinkfong is illegal.\nFor any inquiries about using Pinkfong's Contents for commercial or non-commercial use, kindly contact us through below business inquiry link:\nhttps://bizhelp.pinkfong.com/hc/en-us",
            "publishedAt": "2011-12-14T04:54:24.000Z",
            "countryCode": "us",
            "languageId": 1,
            "typeId": 1,
            "thumbnail": {
                "url": "https://yt3.ggpht.com/a/AGF-l7-3POnXYv9WeLeJBKZAHdN2qZms-ZbQvTuSRQ=s800-c-k-c0xffffffff-no-rj-mo",
                "width": 800,
                "height": 800
            },
            "uploadsPlaylistsId": "UUcdwLMPsaU2ezNSJU1nFoBQ"
        },
        {
            "channelId": "UCBnZ16ahKA2DZ_T5W0FPUXg",
            "title": "ChuChu TV",
            "username": "thechuchutv",
            "summary": "ChuChu TV is designed to engage children through a series of upbeat nursery rhymes and educational songs with colorful animations. Our ChuChu TV characters will teach kids their favorite nursery rhymes, colors, shapes, numbers etc and more importantly good human values which we feel is very important for the next generation champions.\n\nWe hope these videos will bring your family as much joy as we had in creating them.\n\nEnjoy & Have Fun!",
            "publishedAt": "2013-02-09T07:51:48.000Z",
            "countryCode": "in",
            "languageId": 1,
            "typeId": 1,
            "thumbnail": {
                "url": "https://yt3.ggpht.com/a/AGF-l78wW7ps8LDRPei5ZmJJYzlNOkWY6_aVN07WmA=s800-c-k-c0xffffffff-no-rj-mo",
                "width": 800,
                "height": 800
            },
            "uploadsPlaylistsId": "UUBnZ16ahKA2DZ_T5W0FPUXg"
        },
        {
            "channelId": "UC4NALVCmcmL5ntpV0thoH6w",
            "title": "LooLoo Kids",
            "username": "loolookids",
            "summary": "LooLoo Kids is the place where children find all their favorite nursery rhymes and songs with lyrics. Johnny, Johnny, Yes Papa, The Wheels On The Bus, Peek-a Boo and hundreds of beautiful educational songs are entertaining kids around the world.\n\nThe best English learning lessons for kids are now the Musical Adventures of Johnny & Friends. They sing, dance and learn while having a lot of fun. Children are learning to count, to recognize colors, to spell the Alphabet. Rhyming is the new flavour of learning!\n\nOur FHD 3D animated videos are perfectly adapted for their development, and kids enjoy learning new things while watching the videos and our carefully selected playlists. Enjoy the best quality edutainment for babies, toddlers and kids, and don’t forget to subscribe!\n\nEvery week we’re releasing stunning new animations and very fun children songs! Singles & compilation, for happier children and parents!\n\nWebsite: https://www.weareloolookids.com\nCopyright LooLoo Kids.  All Rights Rese",
            "publishedAt": "2014-08-05T20:15:33.000Z",
            "countryCode": "us",
            "languageId": 1,
            "typeId": 1,
            "thumbnail": {
                "url": "https://yt3.ggpht.com/a/AGF-l79wVR0PAenUGgThoCD6mEqYCbkw7qE1v4LHRA=s800-c-k-c0xffffffff-no-rj-mo",
                "width": 800,
                "height": 800
            },
            "uploadsPlaylistsId": "UU4NALVCmcmL5ntpV0thoH6w"
        },
        
        
        
        
        
        
        
        
        
        
        
        
        
        {
            "channelId": "UCB0ABGbdSggBXLF0UdN4d5A",
            "title": "The Muppets",
            "username": "muppetsstudio",
            "summary": "Welcome to Disney The Muppets’ official YouTube channel. This channel is home to the world’s most beloved group of puppets: Kermit the Frog, Miss Piggy, Fozzie Bear, Gonzo, Animal, Beaker, The Swedish Chef, and all of your other favorite Muppet characters. \n\nSubscribe for some of your favorite and best film and television clips from The Muppets, as well as music covers and brand new comedy sketches and other special Muppet content.\n\nStay updated on exclusive Muppet parodies, Muppet music videos, Muppet song covers, comedy sketches, and more! Enjoy Muppet sketches  like “Muppets Audition For Disney Junior,” and Muppet music videos and song covers “Jungle Boogie” by Dr. Teeth and the Electric Mayhem. And check out the behind-the-scenes at Muppet movies like “The Muppets” and “Muppets Most Wanted.”",
            "publishedAt": "2009-11-20T01:57:11.000Z",
            "countryCode": "us",
            "languageId": 1,
            "typeId": 2,
            "thumbnail": {
                "url": "https://yt3.ggpht.com/a/AGF-l7_HsFHWjLUVops2SnNmRpP186qe606ty1fV=s800-c-k-c0xffffffff-no-rj-mo",
                "width": 800,
                "height": 800
            },
            "uploadsPlaylistsId": "UUB0ABGbdSggBXLF0UdN4d5A"
        },
        {
            "channelId": "UCoookXUzPciGrEZEXmh4Jjg",
            "title": "Sesame Street",
            "username": "sesamestreet",
            "summary": "Welcome to Sesame Street. If, by some chance, you were looking for Elmo, Cookie Monster, Big Bird, Grover, Oscar, Bert & Ernie, Telly, Zoe, Rosita, Baby Bear and Snuffleupagus, you are in luck because they are all here! Subscribe for new videos every week:\n\nFor more fun games and videos for your preschooler in a safe, child-friendly environment, visit us at http://www.sesamestreet.org\n\nSesame Street is a production of Sesame Workshop, a nonprofit educational organization. Sesame Street reaches millions of children every day in more than 150 countries. The Workshop's mission is to use the educational power of media to help children everywhere reach their highest potential. The Workshop's programs are tailored to the needs of specific regions and focus on topics that help young children and families develop critical skills for lifelong learning.",
            "publishedAt": "2006-01-16T00:56:52.000Z",
            "countryCode": "us",
            "languageId": 1,
            "typeId": 2,
            "thumbnail": {
                "url": "https://yt3.ggpht.com/a/AGF-l7_N4TFUzQV4w4O4mNBUxlgIHlD6bvmwAaYfHQ=s800-c-k-c0xffffffff-no-rj-mo",
                "width": 800,
                "height": 800
            },
            "uploadsPlaylistsId": "UUoookXUzPciGrEZEXmh4Jjg"
        },
        {
            "channelId": "UCGPPdIn67ZCLhhHABoQpNUw",
            "username": "tvokids",
            "title": "TVOkids",
            "summary": "TVOkids gets kids ready for school, life and to take on the world with the power of learning. Developed for every kind of young learner and covering virtually all Ontario Curriculum areas for Grades JK-5, TVO-produced children's programs are built in collaboration with educational consultants and classroom-tested to ensure specific educational objectives are met. TVO is deeply committed to Ontario’s public education agenda with its focus on high levels of student achievement and well-being, excellence, and equity. TVOkids airs on TVO seven days a week from 6 am to 7 pm and the award-winning tvokids.com is home to a wealth of educational resources. \n \nJust like on TV, kids can enjoy popular series like Annedroids, Dino Dan, Odd Squad, Wild Kratts and Zerby Derby, commercial free, on the TVOKids YouTube channel.\n \nTVO is funded primarily by the Province of Ontario and is a registered charity supported by sponsors and thousands of donors.",
            "publishedAt": "2015-11-10T21:11:06.000Z",
            "countryCode": "us",
            "languageId": 1,
            "typeId": 2,
            "thumbnail": {
                "url": "https://yt3.ggpht.com/a/AGF-l7_w0gkIJXSW33O8MDmWtoMT0OIet7IrWh4OFA=s800-c-k-c0xffffffff-no-rj-mo",
                "width": 800,
                "height": 800
            },
            "uploadsPlaylistsId": "UUGPPdIn67ZCLhhHABoQpNUw"
        },
        {
            "channelId": "UCSJsjCiTl2lourZXnigVCoA",
            "username": "thonguyendochoi",
            "title": "Thơ Nguyễn",
            "summary": "Chào mừng tất cả mọi người đã đến với kênh Thơ Nguyễn. Đây là kênh giải trí dành cho các bạn nhỏ, có nội dung chính về đồ chơi, hướng dẫn nấu các món ăn đơn giản, hướng dẫn làm đồ chơi handmade, các thử thách vui nhộn và được ưa chuộng trong giới trẻ. Ngoài ra, kênh của mình còn làm các video phim hoạt hình về cuộc sống của búp bê barbie, lớp học siêu quậy và được các em nhỏ yêu thích đón nhận. Vì là kênh dành cho các bạn nhỏ nên Thơ Nguyễn đã sử dụng cách xưng hô phù hợp nhất với nội dung kênh, rất mong các quý vị khán giả lớn tuổi thông cảm và thấu hiểu cho Thơ nhé. Rất mong nhận được sự ủng hộ và ý kiến đóng góp từ tất cả mọi người để Thơ Nguyễn có thể hoàn thiện hơn về chất lượng, nội dung video và xây dựng kênh ngày càng lớn mạnh. Xin cám ơn tất cả mọi người.\nBất kỳ thắc mắc, đóng góp hoặc Liên Hệ Tài Trợ, Quảng Cáo, Hợp Tác có thể gửi mail cho Thơ Nguyễn qua địa chỉ: hongthonguyen92@gmail.com",
            "publishedAt": "2016-03-06T03:45:28.000Z",
            "countryCode": "vn",
            "languageId": 0,
            "typeId": 2,
            "thumbnail": {
                "url": "https://yt3.ggpht.com/a/AGF-l79_5C7nXoG-wA7O4ipOvuy8Luiso7_NhhAIRA=s800-c-k-c0xffffffff-no-rj-mo",
                "width": 800,
                "height": 800
            },
            "uploadsPlaylistsId": "UUSJsjCiTl2lourZXnigVCoA"
        },
        
        

        
        
        
        
        
        
        
        
        
        
        {
            "channelId": "UC57XAjJ04TY8gNxOWf-Sy0Q",
            "title": "5-Minute Crafts KIDS",
            "username": "",
            "summary": "Fun diy-projects, crafts, experience the joy of doing it yourself! OFFICIAL CHANNEL.\n\nFor brand partnership enquiries: brands@thesoul-publishing.com",
            "publishedAt": "2017-10-30T13:03:19.000Z",
            "countryCode": "us",
            "languageId": 1,
            "typeId": 3,
            "thumbnail": {
                "url": "https://yt3.ggpht.com/a/AGF-l78fFvdKMiRPOFevbwtJuIReVVaOLnEJ5fnD3g=s800-c-k-c0xffffffff-no-rj-mo",
                "width": 800,
                "height": 800
            },
            "uploadsPlaylistsId": "UU57XAjJ04TY8gNxOWf-Sy0Q"
        },
        {
            "channelId": "UCw5VDXH8up3pKUppIvcstNQ",
            "title": "Slick Slam Sam",
            "username": "",
            "summary": "Have you ever seen a talking slime? Here he is – Slick Slime Sam! He is pink, he is hilarious, he will die for a candy and he always makes sure you are having a good time while watching his adventures.\n\nThis is an official channel for the most entertaining slime in history! He and his \"pet human\" Sue make the most bizarre DIYs, cook incredible foods together and bicker endlessly to find common ground.\n\nSubscribe to Sam's channel and give some thumbs-up and he will make more videos to brighten up your day!\n\nFor brand partnership enquires: brands@thesoul-publishing.com",
            "publishedAt": "2017-10-10T09:08:56.000Z",
            "countryCode": "us",
            "languageId": 1,
            "typeId": 3,
            "thumbnail": {
                "url": "https://yt3.ggpht.com/a/AGF-l7_ogNWGD9ptRNg2FNG0W6LSx5jkN0maXCGYhA=s800-c-k-c0xffffffff-no-rj-mo",
                "width": 800,
                "height": 800
            },
            "uploadsPlaylistsId": "UUw5VDXH8up3pKUppIvcstNQ"
        },
        {
            "channelId": "UCHa-hWHrTt4hqh-WiHry3Lw",
            "title": "EvanTubeHD",
            "username": "evantube",
            "summary": "If you're looking for family-friendly YouTube content, you've come to the right place!  \n\nOur channel is all about KID FUN! Toys, Challenges, Animals, Video Games, Science Experiments, Special Effects, Animation and Attractions!  If it's fun for kids, you'll find it here!\n\nE-mail: evantubehd@gmail.com\nE-mail for Business Inquiries: evantubehd-inquiries@pocket.watch",
            "publishedAt": "2011-09-21T00:02:28.000Z",
            "countryCode": "us",
            "languageId": 1,
            "typeId": 3,
            "thumbnail": {
                "url": "https://yt3.ggpht.com/a/AGF-l78iIGM8v5E-w9mxeRUfQivlj4hM1LI7AYZcdw=s800-c-k-c0xffffffff-no-rj-mo",
                "width": 800,
                "height": 800
            },
            "uploadsPlaylistsId": "UUHa-hWHrTt4hqh-WiHry3Lw"
        },
        {
            "channelId": "UCelMeixAOTs2OQAAi9wU8-g",
            "title": "CookieSwirlC",
            "username": "cookieswirlc",
            "summary": "CookieswirlC's mission is to inspire creativity and spread positivity around the world through fun uplifting videos that encourage learning and imagination ◕‿◕ \n\n* Are you subscribed? It's FREE!!! Don't miss out on all the fun!!!!\n\n\n* Play The official Cookie Swirl World App Game for FREE: \n\nhttps://itunes.apple.com/us/app/cookie-swirl-world/id1445080198?ls=1&mt=8\n\nhttps://play.google.com/store/apps/details?id=com.dyadgames.cookieswirlworld&hl=en\n\n\n* Official CookieSwirlC  shirts: https://teespring.com/stores/cookieswirlc\n\n* Get the official Cookie Swirl C Roblox Shirt : https://www.roblox.com/catalog/712932007/CookieSwirlC-Official-Shirt\n\n* Please be safe online - Cookieswirlc does Not have Facebook, Snapchat, Skype",
            "publishedAt": "2013-11-03T19:07:44.000Z",
            "countryCode": "us",
            "languageId": 1,
            "typeId": 3,
            "thumbnail": {
                "url": "https://yt3.ggpht.com/a/AGF-l79h-IsiQ_NcpIII5r0Lec8fyif3VOqHehydMQ=s800-c-k-c0xffffffff-no-rj-mo",
                "width": 800,
                "height": 800
            },
            "uploadsPlaylistsId": "UUelMeixAOTs2OQAAi9wU8-g"
        },
        {
            "channelId": "UCZA2NJWgiWtLQZPfMhhEZUQ",
            "title": "SimpleKidsCrafts",
            "username": "simplekidscrafts",
            "summary": "Here we share Miniatures, Real Mini Crafts, 5 Minute Crafts, 1 Minute Crafts, Doll crafts,  Dollhouse and Miniature Crafts, General DIY, Doll Crafts for (Monster High, Barbie, Winx, My Little Pony, American Girl),Teen / Tween DIY Tutorials, L.O.L, Toy Reviews, Gifts & much more. Most crafts are easy, fast, simple and inexpensive. Let's play together! \n\nSimplekidscrafts has been recognized among Youtube's Top Educational Kids Crafts Channels: \nhttp://www.simplekidscrafts.com/video/simple-kids-crafts-named-among-the-best-youtube-kids-channels\n\nNew Videos: Wednesdays and Saturdays\n\nFor business inquires: info@simplekidscrafts.com\nWEBSITE: http://www.simplekidscrafts.com\nFACEBOOK: http://www.facebook.com/simplekidscrafts\nTWITTER: http://www.twitter.com/artsandcraftstv\nINSTAGRAM: http://www.instagram.com/simplekidscrafts\n\nXOXOXOXO,\nMerve",
            "publishedAt": "2008-11-05T09:15:51.000Z",
            "countryCode": "us",
            "languageId": 1,
            "typeId": 3,
            "thumbnail": {
                "url": "https://yt3.ggpht.com/a/AGF-l7_Jpq0uurWXLQd5tL4L_rxouBzMVuhVfkcasQ=s800-c-k-c0xffffffff-no-rj-mo",
                "width": 800,
                "height": 800
            },
            "uploadsPlaylistsId": "UUZA2NJWgiWtLQZPfMhhEZUQ"
        },
        
        
        
        
        
        
        
        
        
        
        
        
        
        
        {
               "channelId": "UCsooa4yRKGN_zEE8iknghZA",
               "title": "TED-Ed",
               "username": "teded",
               "summary": "TED-Ed’s commitment to creating lessons worth sharing is an extension of TED’s mission of spreading great ideas. Within TED-Ed’s growing library of TED-Ed animations, you will find carefully curated educational videos, many of which represent collaborations between talented educators and animators nominated through the TED-Ed website (ed.ted.com).\n\nWant to suggest an idea for a TED-Ed animation or get involved with TED-Ed? Visit our website at: http://ed.ted.com/get_involved.\n\nAlso, consider donating to us on Patreon! By doing so, you directly support our mission and receive some pretty awesome rewards: https://www.patreon.com/teded\n\nFor more information on using TED for commercial purposes (e.g. employee learning, in a film, or in an online course), please submit a Media Request using this link: https://media-requests.ted.com/",
               "publishedAt": "2011-03-01T20:33:10.000Z",
               "countryCode": "us",
               "languageId": 1,
               "typeId": 4,
               "thumbnail": {
                   "url": "https://yt3.ggpht.com/a/AGF-l7_KYzscxJEPD222JCwLBSiMIDXi5wtsWc4Rww=s800-c-k-c0xffffffff-no-rj-mo",
                   "width": 800,
                   "height": 800
               },
               "uploadsPlaylistsId": "UUsooa4yRKGN_zEE8iknghZA"
        },
        {
            "channelId": "UCONtPx56PSebXJOxbFv-2jQ",
            "title": "Crash Course Kids",
            "username": "crashcoursekids",
            "summary": "Welcome to Crash Course Kids! This bi-weekly show from the producers of Crash Course is all about gradeschool science. We'll look at Earth, Habitats, Space, Chemical Reactions, Engineering, and much much more with host Sabrina Cruz. So, join us every Tuesday and Thursday for new uploads.\n\nThis series is beginning with 5th grade science, so we'll be delving into Earth Science, Physical Science, Biology, Geography, Engineering, and Astronomy. Have a look at our playlists on each subject!",
            "publishedAt": "2014-09-08T16:46:23.000Z",
            "countryCode": "us",
            "languageId": 1,
            "typeId": 4,
            "thumbnail": {
                "url": "https://yt3.ggpht.com/a/AGF-l7-0pjPc9Hc5uQmfJLhWbt6wLgzkYw8M41z-6w=s800-c-k-c0xffffffff-no-rj-mo",
                "width": 800,
                "height": 800
            },
            "uploadsPlaylistsId": "UUONtPx56PSebXJOxbFv-2jQ"
        },
        {
            "channelId": "UC7EFWpvc1wYuUwrtZ_BLi9A",
            "title": "Kids Learning Tube",
            "username": "kidslearningtube",
            "summary": "Kids Learning Tube educates kids through music and animation in a fun and unique approach to learning.",
            "publishedAt": "2015-01-26T20:12:06.000Z",
            "countryCode": "us",
            "languageId": 1,
            "typeId": 4,
            "thumbnail": {
                "url": "https://yt3.ggpht.com/a/AGF-l7-D8SCpDSMmT7J9NDCBheVYN4uB9igTrkJH1w=s800-c-k-c0xffffffff-no-rj-mo",
                "width": 800,
                "height": 800
            },
            "uploadsPlaylistsId": "UU7EFWpvc1wYuUwrtZ_BLi9A"
        },
        {
            "channelId": "UCX6b17PVsYBQ0ip5gyeme-Q",
            "title": "CrashCourse",
            "username": "crashcourse",
            "summary": "Tons of awesome courses in one awesome channel! Nicole Sweeney teaches you sociology, Carrie Anne Philbin teaches you computer science, Craig Benzine teaches film history, and Mike Rugnetta is teaching mythology! \n\nCheck out the playlists for past courses in physics, philosophy, games, economics, U.S. government and politics, astronomy, anatomy & physiology, world history, biology, literature, ecology, chemistry, psychology, and U.S. history.\n\nHelp support Crash Course at Patreon.com/CrashCourse.",
            "publishedAt": "2006-05-20T02:43:42.000Z",
            "countryCode": "us",
            "languageId": 1,
            "typeId": 4,
            "thumbnail": {
                "url": "https://yt3.ggpht.com/a/AGF-l785JsRUb9Bf3NT_Y2yIla9xx4Y3F2nxEwXU0g=s800-c-k-c0xffffffff-no-rj-mo",
                "width": 800,
                "height": 800
            },
            "uploadsPlaylistsId": "UUX6b17PVsYBQ0ip5gyeme-Q"
        },
        {
            "channelId": "UCebMFnw6WxozGmqGekJHOJg",
            "title": "Free School",
            "username": "freeschool",
            "summary": "FreeSchool is a safe and friendly place to expose children to famous art, classical music, children's literature, and natural science in an age-appropriate and kid-accessible way. \n\nFreeSchool is educational, enriching, and entertaining! Subscribe here and never miss an update - or, if you prefer, visit us on Facebook! https://www.facebook.com/watchFreeSchool",
            "publishedAt": "2014-10-19T13:22:59.000Z",
            "countryCode": "us",
            "languageId": 1,
            "typeId": 4,
            "thumbnail": {
                "url": "https://yt3.ggpht.com/a/AGF-l79_yU_wGs4TT4_znaQO43Np4evlkmGy-mYIpA=s800-c-k-c0xffffffff-no-rj-mo",
                "width": 800,
                "height": 800
            },
            "uploadsPlaylistsId": "UUebMFnw6WxozGmqGekJHOJg"
        },
        {
            "channelId": "UCAJnyTWJPpKXuwgWQDdNWrQ",
            "title": "StoryBots & Friends",
            "username": "storybots",
            "summary": "StoryBots is the children’s learning and entertainment franchise behind the hit Emmy Award-winning Netflix series Ask the StoryBots. Available in 22 languages across 190 countries, the star-studded show follows the StoryBots, a team of colorful creatures who answer kids’ biggest questions - from “how do computers work?” to “why can’t I eat dessert all the time?”.\n\nOur YouTube channel features more than 150 short learning music videos - with topics ranging from dinosaurs and outer space to emotions and colors - along with the full episodes of the hit \"StoryBots Super Songs\".",
            "publishedAt": "2012-01-28T01:26:53.000Z",
            "countryCode": "us",
            "languageId": 1,
            "typeId": 4,
            "thumbnail": {
                "url": "https://yt3.ggpht.com/a/AGF-l797cf2zxX71au1nHDjx7-wQglPWUlEONgl4BA=s800-c-k-c0xffffffff-no-rj-mo",
                "width": 800,
                "height": 800
            },
            "uploadsPlaylistsId": "UUAJnyTWJPpKXuwgWQDdNWrQ"
        },
        {
            "channelId": "UCxlJ45KjG4XVcQ_hd8j227A",
            "title": "Peekaboo Kidz",
            "username": "peekaboo",
            "summary": "Peekaboo is a cheerful destination with colourful animation for all the Happy Children of the world! Specially designed for kids as they explore the World of Kids Educational Videos, Classic English songs, Phonics Songs, Lullabies and more! Come join us and meet Dr. Binocs only on Peekaboo Kidz. \n\nSUBSCRIBE NOW!",
            "publishedAt": "2014-06-07T04:04:36.000Z",
            "countryCode": "us",
            "languageId": 1,
            "typeId": 4,
            "thumbnail": {
                "url": "https://yt3.ggpht.com/a/AGF-l7-XRBSTNA1oqgYhNJnRnyRZf5lEgHQyYFr8-w=s800-c-k-c0xffffffff-no-rj-mo",
                "width": 800,
                "height": 800
            },
            "uploadsPlaylistsId": "UUxlJ45KjG4XVcQ_hd8j227A"
        },
        {
            "channelId": "UCaIS49HEvpCrHuVCVEAYKWA",
            "title": "HooplaKidz Edu",
            "username": "hooplakidzedu",
            "summary": "Color is one of the most noticeable attributes of the world around us. For kids, understanding colors are an essential building block they will use for learning in all areas of their life. \n\nHooplaKidz EDU has a vast array of interactive and engaging videos that teach kids beautiful colors that they can see around them. These videos teach kids colours in a fun and innovative way by including everyday objects which enable kids to learn while they play and have fun! \n\nWe have a variety of colorful objects for kids to learn with, such as soccer balls, jelly, xylophone, ice creams, lollipops, dinosaur eggs and many more fascinating things! We also have fun videos like feet and face painting that introduce kids to colors in an interesting way! \n\nCome along and join our Colorful World of HooplaKidz EDU by subscribing here: https://goo.gl/rzcLNB",
            "publishedAt": "2014-05-19T08:35:26.000Z",
            "countryCode": "us",
            "languageId": 1,
            "typeId": 4,
            "thumbnail": {
                "url": "https://yt3.ggpht.com/a/AGF-l79-AHqrNMAArFWAa3xgyIUFj7P-trJNFhbOfA=s800-c-k-c0xffffffff-no-rj-mo",
                "width": 800,
                "height": 800
            },
            "uploadsPlaylistsId": "UUaIS49HEvpCrHuVCVEAYKWA"
        },
        {
            "channelId": "UC-biucJWhM8HwjsQ96uoIUw",
            "title": "Cartooning 4 Kids",
            "username": "cartooning4kids",
            "summary": "Welcome to the club! Learn How to Draw with my step by step art tutorials. I upload new drawing lessons 7 days a week. Subscribe and click that bell notification 🔔 so you don't miss a lesson. Learn How to Draw with over a thousand easy to follow step by step drawing tutorials. \n\nFollow me on Instagram @cartooning4kids for more behind the scenes, artwork and more. Don't forget to tag me and share your art.\n\nLearn more about me on my OFFICIAL WEBSITE https://www.cartooning4kids.com/\nINSTAGRAM https://www.instagram.com/cartooning4kids\nFACEBOOK https://www.facebook.com/Cartooning4Fun\n\nThanks for watching! ♥ ♥ ♥",
            "publishedAt": "2014-06-02T17:25:35.000Z",
            "countryCode": "ca",
            "languageId": 1,
            "typeId": 4,
            "thumbnail": {
                "url": "https://yt3.ggpht.com/a/AGF-l78Ta3JfG6s-5KbAwsE7bOo2a69Nc7klgK1xZA=s800-c-k-c0xffffffff-no-rj-mo",
                "width": 800,
                "height": 800
            },
            "uploadsPlaylistsId": "UU-biucJWhM8HwjsQ96uoIUw"
        },
        {
            "channelId": "UCG4dadF2w8Z95qz-vJ3WkqQ",
            "title": "Cool School",
            "username": "coolschool",
            "summary": "📚Order Drew’s new books here! http://bit.ly/DrewPendousbook\n📖 Download Cool School: Reading Stories here! http://bit.ly/\n👉Cool School shirts, pillows, mugs, & more! http://www.coolschool.com/\n\nWelcome to Cool School where daring superheroes, funny storytellers, kooky arts & crafts teachers, and mean-o villains unite to learn, laugh, play...and fight (only sometimes)! Whether you're going on exciting adventures with Drew Pendous, watching stories come to life with Ms. Booksy, or making exciting crafts with Crafty Carol, it's never a boring day at Cool School! Our curriculum goes wherever your imagination will take it making it the COOLEST school ever! \n\n💖Subscribe to Cool School's Channel! http://bit.ly/CoolSchoolYT\n\n👍 Like Cool School on Facebook: http://on.fb.me/1EFNxXE\n📸 Follow Cool School on Instagram: http://bit.ly/1GIWGxU\n🐤 Follow Cool School on Twitter: http://bit.ly/1EUu2fI\n\nCool School is created and owned by Driver Digital - http://DriverDigital.com",
            "publishedAt": "2006-04-06T12:13:38.000Z",
            "countryCode": "us",
            "languageId": 1,
            "typeId": 4,
            "thumbnail": {
                "url": "https://yt3.ggpht.com/a/AGF-l79JFsNeY9TjZOJXfCXvAFBzg4Lk3TuCSbPOmQ=s800-c-k-c0xffffffff-no-rj-mo",
                "width": 800,
                "height": 800
            },
            "uploadsPlaylistsId": "UUG4dadF2w8Z95qz-vJ3WkqQ"
        },
        
        
        
        
        
        
        
        
        
        
        
        
        
        
        
        
        
        {
            "channelId": "UCXVCgDuD_QCkI7gTKU7-tpg",
            "title": "National Geographic Kids",
            "username": "natgeokids",
            "summary": "Nat Geo Kids makes it fun to explore your world with weird, wild, and wacky videos! Videos featuring awesome animals, cool science, funny pets, and more, are made just for curious kids like you. So pick a topic you love and start watching today! \n\nVisit the National Geographic Kids website for more games, photos, and videos at http://natgeokids.com. Watch more National Geographic Kids videos at http://natgeokids.com/video",
            "publishedAt": "2014-11-19T15:53:04.000Z",
            "countryCode": "us",
            "languageId": 1,
            "typeId": 5,
            "thumbnail": {
                "url": "https://yt3.ggpht.com/a/AGF-l79r4473uUfDRytKkSFVDLO3ghTtuoZgciqFlg=s800-c-k-c0xffffffff-no-rj-mo",
                "width": 800,
                "height": 800
            },
            "uploadsPlaylistsId": "UUXVCgDuD_QCkI7gTKU7-tpg"
        },
        {
            "channelId": "UCZYqWTQJzJaMW7jFG16p8ug",
            "title": "HooplaKidzLab",
            "username": "hooplakidzlab",
            "summary": "Looking for authentic science demonstrations? You've landed at the right place. Science experiments provide hours of fun and we believe in keeping it simple and awesome at the same time. Find easy science experiments for people of all ages to do at home. Have a look at our fun experiments from HooplaKidzLab!",
            "publishedAt": "2013-10-19T05:31:48.000Z",
            "countryCode": "us",
            "languageId": 1,
            "typeId": 5,
            "thumbnail": {
                "url": "https://yt3.ggpht.com/a/AGF-l7_tFgAb1kyesNqdzFNCSCvELcCuzdZYdaF-UQ=s800-c-k-c0xffffffff-no-rj-mo",
                "width": 800,
                "height": 800
            },
            "uploadsPlaylistsId": "UUZYqWTQJzJaMW7jFG16p8ug"
        },
        {
            "channelId": "UCkyfHZ6bY2TjqbJhiH8Y2QQ",
            "title": "The Brain Scoop",
            "username": "thebrainscoop",
            "summary": "I'm Emily, the Chief Curiosity Correspondent of The Field Museum in Chicago, former volunteer of the University of Montana Zoological Museum, and I'd like to share some of the amazing things we have in the collection with the Internet!",
            "publishedAt": "2012-12-17T19:15:31.000Z",
            "countryCode": "us",
            "languageId": 1,
            "typeId": 5,
            "thumbnail": {
                "url": "https://yt3.ggpht.com/a/AGF-l7_DPaXXv7FtQWOsGGFm7W3syNv5E80QSmKcFg=s800-c-k-c0xffffffff-no-rj-mo",
                "width": 800,
                "height": 800
            },
            "uploadsPlaylistsId": "UUkyfHZ6bY2TjqbJhiH8Y2QQ"
        },
        {
            "channelId": "UCRFIPG2u1DxKLNuE3y2SjHA",
            "title": "SciShow Kids",
            "username": "scishowkids",
            "summary": "SciShow Kids explores all those curious topics that make us ask \"why?\" \nEvery Tuesday and Thursday, Jessi and her robot rat Squeaks answer your questions and explain fun, complex science concepts for young, curious minds. \n\nWhether conducting experiments, researching new questions, or talking with experts, there's always something new to discover with SciShow Kids, no matter what your age!",
            "publishedAt": "2014-07-10T18:03:52.000Z",
            "countryCode": "us",
            "languageId": 1,
            "typeId": 5,
            "thumbnail": {
                "url": "https://yt3.ggpht.com/a/AGF-l7_cqcLEw3r77I6ai_Hlo9fXEZzE9gnNriuMtw=s800-c-k-c0xffffffff-no-rj-mo",
                "width": 800,
                "height": 800
            },
            "uploadsPlaylistsId": "UURFIPG2u1DxKLNuE3y2SjHA"
        },
        {
            "channelId": "UCUHW94eEFW7hkUMVaZz4eDg",
            "title": "Minute Physics",
            "username": "minutephysics",
            "summary": "Simply put: cool physics and other sweet science.\n\n\"If you can't explain it simply, you don't understand it well enough.\"\n~Rutherford via Einstein? (wikiquote)\n\nCreated by Henry Reich",
            "publishedAt": "2011-06-20T18:20:09.000Z",
            "countryCode": "us",
            "languageId": 1,
            "typeId": 5,
            "thumbnail": {
                "url": "https://yt3.ggpht.com/a/AGF-l7_90_OopgqRNxh6zi7bhcOT8SHeQLbJDR1ZFQ=s800-c-k-c0xffffffff-no-rj-mo",
                "width": 800,
                "height": 800
            },
            "uploadsPlaylistsId": "UUUHW94eEFW7hkUMVaZz4eDg"
        },
        {
            "channelId": "UCwWa8EzP8vuI_hvFWOTryEg",
            "title": "Kids Science",
            "username": "kidsscience",
            "summary": "Backyard Science is an Australian educational children's television show based on the Dorling Kindersley books. In this series, children experiment with everyday items in order to make something fun and practical and also provide scientific insights in a child's world.\n\nThe show is co-hosted by Tarun Victor Gordon and Dana Kronental, is co-produced by Beyond Television Productions and Penguin Television and airs on Australian free-to-air television on both the Seven Network and ABC. The series was composed of more than 78 episodes. Jason Smith was a presenter for some time.\n\nIt was broadcast in the USA under the title Crash! Bang! Splat! on the former Discovery Kids Channel.",
            "publishedAt": "2015-04-07T05:52:27.000Z",
            "countryCode": "au",
            "languageId": 1,
            "typeId": 5,
            "thumbnail": {
                "url": "https://yt3.ggpht.com/a/AGF-l7_PEKFl9TFwN7dZsdJ3H5cMzP6iLGO-BfhkMA=s800-c-k-c0xffffffff-no-rj-mo",
                "width": 800,
                "height": 800
            },
            "uploadsPlaylistsId": "UUwWa8EzP8vuI_hvFWOTryEg"
        },
        
        
        
        
        
        
        
        
        
        
        {
            "channelId": "UCqKNzUHmCrvZsFDzpAR3GjA",
            "title": "Houston Zoo",
            "username": "houstonzoo",
            "summary": "Videos from the Houston Zoo.",
            "publishedAt": "2007-03-01T14:22:20.000Z",
            "countryCode": "us",
            "languageId": 1,
            "typeId": 6,
            "thumbnail": {
                "url": "https://yt3.ggpht.com/a/AGF-l7-nb5uqubYIYwQ1fmA1pEdQrDEuDdF_phop5g=s800-c-k-c0xffffffff-no-rj-mo",
                "width": 800,
                "height": 800
            },
            "uploadsPlaylistsId": "UUqKNzUHmCrvZsFDzpAR3GjA"
        },
        {
            "channelId": "UC6E2mP01ZLH_kbAyeazCNdg",
            "title": "Brave Wilderness",
            "username": "bravewilderness",
            "summary": "The Brave Wilderness Channel is your one stop connection to a wild world of adventure and amazing up close animal encounters! \n\nFollow along with adventurer and animal expert Coyote Peterson and his crew as they lead you on 7 exciting expedition series - Breaking Trail, Blue Wilderness, Beyond the Tide, Beyond Dinosaurs, Dragon Tails, Base Camp and On Location - featuring everything from Grizzly Bears and Crocodiles to Rattlesnakes and Tiger Sharks! Every single episode offers an opportunity to learn something new.\n      \nSo SUBSCRIBE NOW and join the adventure that brings you closer to the most beloved, bizarre and misunderstood creatures known to man. \n\nGET READY...things are about to get WILD!   \n \nNew Videos Every Wednesday, Friday and Sunday!",
            "publishedAt": "2014-09-08T22:58:06.000Z",
            "countryCode": "us",
            "languageId": 1,
            "typeId": 6,
            "thumbnail": {
                "url": "https://yt3.ggpht.com/a/AGF-l7-YsbtDVlMX_5RLe4DhlaZhzYEkxuEa3QbfzQ=s800-c-k-c0xffffffff-no-rj-mo",
                "width": 800,
                "height": 800
            },
            "uploadsPlaylistsId": "UU6E2mP01ZLH_kbAyeazCNdg"
        },
        {
            "channelId": "UCWqPRUsJlZaDp-PVbqEch9g",
            "title": "Smithsonian Channel",
            "username": "smithsonianchannel",
            "summary": "Smithsonian Channel™ is where curiosity lives, inspiration strikes and wonders never cease. This is the place for awe-inspiring stories, powerful documentaries and amazing entertainment. As a joint venture, Smithsonian Channel combines the storytelling prowess of Showtime Networks with the unmatched resources and rich traditions of the Smithsonian Institution. We create award-winning programming that shines new light on popular genres such as: air and space, history, science, nature, and pop culture.\nThis is Smithsonian Channel. It's brighter here™.\n\nGet your FREE trial for Smithsonian Channel Plus by signing up today at https://watch.smithsonianchannel.com/\n\nWatch Smithsonian Channel on YouTube TV: https://tv.youtube.com/welcome/",
            "publishedAt": "2008-01-31T18:00:51.000Z",
            "countryCode": "us",
            "languageId": 1,
            "typeId": 6,
            "thumbnail": {
                "url": "https://yt3.ggpht.com/a/AGF-l78uAmeokktEUmZsUQ5bb-b2-yt4WQkXMkA7Rw=s800-c-k-c0xffffffff-no-rj-mo",
                "width": 800,
                "height": 800
            },
            "uploadsPlaylistsId": "UUWqPRUsJlZaDp-PVbqEch9g"
        },
        {
            "channelId": "UCC5NfQ6Mf0dq_eEwv4P_hWA",
            "title": "San Diego Zoo",
            "username": "sdzoo",
            "summary": "The latest animal and conservation news from the San Diego Zoo. WARNING: May cause a visit to the San Diego Zoo.",
            "publishedAt": "2006-09-11T20:34:04.000Z",
            "countryCode": "us",
            "languageId": 1,
            "typeId": 6,
            "thumbnail": {
                "url": "https://yt3.ggpht.com/a/AGF-l7_OzQP6PWBcFzOXq9VW0v4NY6E6qXwumFhdGw=s800-c-k-c0xffffffff-no-rj-mo",
                "width": 800,
                "height": 800
            },
            "uploadsPlaylistsId": "UUC5NfQ6Mf0dq_eEwv4P_hWA"
        },
        
        
        
        
        
        
        
        
        
        {
            "channelId": "UChGJGhZ9SOOHvBB0Y4DOO_w",
            "title": "Ryan ToysReview",
            "username": "ryantoysreview",
            "summary": "Ryan loves Toys.  Toys Review for kids by a kid!\nJoin Ryan to see him play with toys and review toys for kids!\nRyan will also love doing fun and easy science experiments for kids! \n\nMost of the toys we used to review are being donated to local charity \n\nRyan's Toys & Clothing at Walmart and Target!\n\nRyan's World \nRyan's Family Review: https://www.youtube.com/channel/UCsaOzYsyshyrYL4SHCTI8xw\nCombo Panda: https://www.youtube.com/channel/UCb69PhsHzsorirJDlxaIXlg\nGus The Gummy Gator: https://www.youtube.com/channel/UCZkSuKAy5kMnZXoxo1PrmJQ\nVTubers: https://www.youtube.com/channel/UCwOGO9gT1y0IvzPqKal4loQ\nThe Studio Space: https://www.youtube.com/channel/UCRgCbwOa1f76Ec_eRBhhezA\nFor Media Inquiries: RyanToysReview@rogersandcowan.com\nFor Business Inquiries: ryantoysreviewbiz@gmail.com",
            "publishedAt": "2015-03-17T00:18:47.000Z",
            "countryCode": "us",
            "languageId": 1,
            "typeId": 7,
            "thumbnail": {
                "url": "https://yt3.ggpht.com/a/AGF-l79UYVdnU4rI9eFJmir3DfTp4m8wGG9c-jvWSA=s800-c-k-c0xffffffff-no-rj-mo",
                "width": 800,
                "height": 800
            },
            "uploadsPlaylistsId": "UUhGJGhZ9SOOHvBB0Y4DOO_w"
        },
        {
            "channelId": "UCqdGW_m8Rim4FeMM29keDEg",
            "title": "FunToys Collector Disney Toys Review",
            "username": "DCtoysCollector",
            "summary": "Welcome to Playtime Disneycollector Toys Review for toddlers, babies, infants and pre-school children . I review and open new toys n dolls for fun, from Disney, Pixar, Nickelodeon, Play Doh, LOL dolls surprise much more! Subscribe to watch more daily videos!I \n\nI really love making surprise videos, like kinder eggs, lol dolls, mashems , chocolate eggs, playdoh eggs and even slime surprise !\n\nAs a kid i never had any toys, that's why i love opening them every day !\n\nMe encanta hacer revision de carrinhos, juguetes, bambole, bonecas y muñecas Disney. Este es un canal para los niños y niñas en edad preescolar que ama juguetes y muñecas. Videos infantiles en español para niños.",
            "publishedAt": "2011-04-13T22:31:49.000Z",
            "countryCode": "us",
            "languageId": 1,
            "typeId": 7,
            "thumbnail": {
                "url": "https://yt3.ggpht.com/a/AGF-l78Oe2qBWksOfiToL6IkelkFDMShb4lxAo34Kw=s800-c-k-c0xffffffff-no-rj-mo",
                "width": 800,
                "height": 800
            },
            "uploadsPlaylistsId": "UUqdGW_m8Rim4FeMM29keDEg"
        },
        {
            "channelId": "UClkUrNgGC4BD6pWURJbM9MQ",
            "title": "AWESMR kids",
            "username": "awesomedisneytoys",
            "summary": "Thanks for dropping by!\n\nWe review all sorts of toys from Disney, Pixar, Play Doh, and much more! Subscribe to watch more fun videos from us!",
            "publishedAt": "2013-10-02T05:28:38.000Z",
            "countryCode": "us",
            "languageId": 1,
            "typeId": 7,
            "thumbnail": {
                "url": "https://yt3.ggpht.com/a/AGF-l79M3Xo-HSdmtWpG7lq9Q29MpSLKV5I1X2Rk7w=s800-c-k-c0xffffffff-no-rj-mo",
                "width": 800,
                "height": 800
            },
            "uploadsPlaylistsId": "UUlkUrNgGC4BD6pWURJbM9MQ"
        },
        {
            "channelId": "UCwBA0PfQ_x03pmpPr7gk9LA",
            "title": "Kid Studio",
            "username": "kidstudios",
            "summary": "Kid Studio is a video channel with entertainment and educational content for kids.  Characters appearing in our videos are Trucks, Police Cars, Racing Cars, Excavators, Ambulances, Fire Trucks,… along with famous superheroes such as: Spider-man, Hulk, Iron Man,..\nPromises to bring you funny and hilarious videos, and meaningful lessons about life, contribute to development of children’s thinking and humanity in a positive way.",
            "publishedAt": "2015-01-23T15:19:13.000Z",
            "countryCode": "vn",
            "languageId": 0,
            "typeId": 7,
            "thumbnail": {
                "url": "https://yt3.ggpht.com/a/AGF-l7-jyIWkiylJ-diQFBX30bjOIwyavNi8WCCv7g=s800-c-k-c0xffffffff-no-rj-mo",
                "width": 800,
                "height": 800
            },
            "uploadsPlaylistsId": "UUwBA0PfQ_x03pmpPr7gk9LA"
        },
        {
            "channelId": "UC-s_hG_sI02u_4k0-sOdt-w",
            "title": "Toy Review TV",
            "username": "swcctoyreviewtv",
            "summary": "Toy Review TV is a Family Friendly channel that review's random popular toy's from many well known brands. We cover toys for children of all ages from preschool, toddlers and upwards. We really love to review and play with toys that all kids like. We feature all kinds of toys like Disney Junior playset's, sticker albums, blind bags, surprise eggs, Imaginext Toys, Parody Videos and we like to feature characters such as SpongeBob SquarePants, Angry Birds, Minions, Hulk Smash, Batman, The Avengers. We also like to feature Nickelodeon cartoons such as Peppa Pig.",
            "publishedAt": "2011-09-07T09:54:29.000Z",
            "countryCode": "gb",
            "languageId": 1,
            "typeId": 7,
            "thumbnail": {
                "url": "https://yt3.ggpht.com/a/AGF-l7_sOO1lwdKecGY1QE__kTg4vjXO8uZr4hBDlw=s800-c-k-c0xffffffff-no-rj-mo",
                "width": 800,
                "height": 800
            },
            "uploadsPlaylistsId": "UU-s_hG_sI02u_4k0-sOdt-w"
        },
        {
            "channelId": "UCzIdYMdAtTsWucGCZyZvN6w",
            "title": "Toys Unlimited",
            "username": "toysunlimitedofficial",
            "summary": "Hello bestie!! It's Nat, Essie and Sprinkles the Bear for Toys Unlimited! Welcome to our family & child friendly youtube channel! We review the newest toys with fun & creative pretend plays. We add positive role-plays into our storylines with each video to create a more positive experience for the kids.\n\nAs parents, we understand the importance of fun and safe environment for kids and this is what we aspire to do with each video. You can support us by subscribing and adding us to your child's approved youtube channels. It's a bonus point if you turn ON the notifications... Don't worry, it's all FREE!\n\nCome say hi on our facebook page (best place to reach us at the moment) and also.....\n\nWE LOVE FAN MAIL!\n\nTOYS UNLIMITED\n3431 RAYFORD RD,\nSTE 200, #140\nSPRING, TX\n77386\n\nWe're all over the internet too! You can find us in all these places:\n\nInstagram: http://bit.ly/2jKtHIr\nFacebook: http://bit.ly/2xfNNh0\nTwitter: http://bit.ly/2xfXoo1\n\nThank you BESTIES!",
            "publishedAt": "2015-02-07T18:58:59.000Z",
            "countryCode": "us",
            "languageId": 1,
            "typeId": 7,
            "thumbnail": {
                "url": "https://yt3.ggpht.com/a/AGF-l7_gTClJicBjTRzFbVK0hQ8sYKzuL6-ZU_Z4-A=s800-c-k-c0xffffffff-no-rj-mo",
                "width": 800,
                "height": 800
            },
            "uploadsPlaylistsId": "UUzIdYMdAtTsWucGCZyZvN6w"
        }
        
        
        
        
        
        
        
        
        
        
    ]

}

